Lab_9_Data Transformation
…
Creating a table that selects variable BIASMO (bias motivation) with the number range of 1 to 5.

data_subset2_Num_Range <- data2 %>%
  select(num_range("BIASMO", 1:5))

data_subset13_Num_Range <- data13 %>%
  select(num_range("BIASMO", 1:5)) 

Are there any mutations you wish to carry out on your data (i.e.new variables you wish to create based upon the values of already existing variables)? If so, describe what they are and what you will name them.

Using the mutate function to generate a new column that I need. I wantt to make a column that has Total number of victims (TNUMVTMS) and totatl number of offenders in the incident (TNUMOFF) in one column.

data_subset2 %>% mutate(new_column = TNUMVTMS + TNUMOFF)

## # A tibble: 7,462 x 10
##          CITY STATECOD   POP1 TNUMVTMS TNUMOFF GOFFRAC BIASMO1 VTYP_I1
##         <chr>    <chr>  <int>    <int>   <int>   <chr>   <int>   <int>
##  1  ANCHORAGE       AK 267280        1       2       U      41       1
##  2  ANCHORAGE       AK 267280        1       1       W      41       1
##  3  ANCHORAGE       AK 267280        1       2       W      12       1
##  4  ANCHORAGE       AK 267280        1       0       U      13       1
##  5  ANCHORAGE       AK 267280        1       4       W      41       1
##  6  ANCHORAGE       AK 267280        1       2       W      13       1
##  7  ANCHORAGE       AK 267280        1       1       W      12       1
##  8   PRICHARD       AL  28886        1       1       B      11       1
##  9 MONTGOMERY       AL  22135        1       5       W      12       1
## 10      EAGAR       AZ   4290        1       0       U      51       1
## # ... with 7,452 more rows, and 2 more variables: LOCCOD1 <int>,
## #   new_column <int>

This is the same thing but for data set 2013

data_subset13 %>% mutate(new_column = TNUMVTMS + TNUMOFF)

## # A tibble: 5,914 x 10
##          CITY STATECOD   POP1 TNUMVTMS TNUMOFF GOFFRAC BIASMO1 VTYP_I1
##         <chr>    <chr>  <int>    <int>   <int>   <chr>   <int>   <int>
##  1  ANCHORAGE       AK 299455        1       1       U      12       1
##  2  ANCHORAGE       AK 299455        2       1       W      13       1
##  3  ANCHORAGE       AK 299455        1       4       W      12       1
##  4  ANCHORAGE       AK 299455        1       1       W      12       1
##  5  ANCHORAGE       AK 299455        1       1       W      12       1
##  6  ANCHORAGE       AK 299455        1       0       U      12       1
##  7  ANCHORAGE       AK 299455        1       1       W      13       1
##  8  ANCHORAGE       AK 299455        1       1       W      13       1
##  9     HOOVER       AL  60284        1       2       M      41       1
## 10 PRATTVILLE       AL  33293        1       1       W      12       1
## # ... with 5,904 more rows, and 2 more variables: LOCCOD1 <int>,
## #   new_column <int>
…
x > y, TRUE if x is greater than y

x %in% c(a, b, c), TRUE if x is in the vector c(a, b, c)

What are some potential subsets of your data that seem interesting and worth investigation to you?

Subsets of my data that i want to investigate are the comparisons of the 2002 and 2013 data on the differential bias motives and see if there are comparisons. I also want to look at how many offenders compared to number of vicitms there in each case.

Use at least two of the logical operators presented above to print these subsets of your data.

Using the filter function, x < y, TRUE if x is less than y, to only look at incidents where the number of victims are less than the number of offenders within the incident report for the 2002 data.

data_subset2 %>% filter(TNUMVTMS < TNUMOFF)

## # A tibble: 2,193 x 9
##          CITY STATECOD   POP1 TNUMVTMS TNUMOFF GOFFRAC BIASMO1 VTYP_I1
##         <chr>    <chr>  <int>    <int>   <int>   <chr>   <int>   <int>
##  1  ANCHORAGE       AK 267280        1       2       U      41       1
##  2  ANCHORAGE       AK 267280        1       2       W      12       1
##  3  ANCHORAGE       AK 267280        1       4       W      41       1
##  4  ANCHORAGE       AK 267280        1       2       W      13       1
##  5 MONTGOMERY       AL  22135        1       5       W      12       1
##  6     BISBEE       AZ   6476        1       2       W      41       1
##  7      GLOBE       AZ  18962        0       2       W      11       0
##  8      GLOBE       AZ  18962        1       2       W      15       1
##  9    PHOENIX       AZ 269229        0       2       W      15       0
## 10   CHANDLER       AZ 187795        1       3       W      12       1
## # ... with 2,183 more rows, and 1 more variables: LOCCOD1 <int>

Using the filter function, x < y, TRUE if x is less than y, to only look at incidents where the number of victims are less than the number of offenders within the incident report for the 2013 data.

data_subset13 %>% filter(TNUMVTMS < TNUMOFF)

## # A tibble: 1,199 x 9
##                 CITY STATECOD    POP1 TNUMVTMS TNUMOFF GOFFRAC BIASMO1
##                <chr>    <chr>   <int>    <int>   <int>   <chr>   <int>
##  1         ANCHORAGE       AK  299455        1       4       W      12
##  2            HOOVER       AL   60284        1       2       M      41
##  3            ROGERS       AR   59787        1       2       W      12
##  4        PINE BLUFF       AR   46399        1       2       B      41
##  5 NORTH LITTLE ROCK       AR   65398        1       2       W      12
##  6        FORT SMITH       AR   87821        1       2       W      12
##  7           PHOENIX       AZ  387794        1       3       M      24
##  8          GLENDALE       AZ  234006        1       2       U      41
##  9           PHOENIX       AZ 1502139        1       3       B      32
## 10           PHOENIX       AZ 1502139        1       2       U      41
## # ... with 1,189 more rows, and 2 more variables: VTYP_I1 <int>,
## #   LOCCOD1 <int>

Doing the same filter that i did above for 2002 data but switched the variables so i can see which incidents have more victims than offenders

data_subset2 %>% filter(TNUMOFF < TNUMVTMS)

## # A tibble: 1,855 x 9
##         CITY STATECOD   POP1 TNUMVTMS TNUMOFF GOFFRAC BIASMO1 VTYP_I1
##        <chr>    <chr>  <int>    <int>   <int>   <chr>   <int>   <int>
##  1 ANCHORAGE       AK 267280        1       0       U      13       1
##  2     EAGAR       AZ   4290        1       0       U      51       1
##  3     GLOBE       AZ  18962        1       0       U      33       1
##  4     GLOBE       AZ  18962        2       1       W      32       1
##  5   PHOENIX       AZ 269229        1       0       U      24       1
##  6  CHANDLER       AZ 187795        2       0       U      12       1
##  7  CHANDLER       AZ 187795        1       0       U      12       1
##  8  CHANDLER       AZ 187795        1       0       U      41       1
##  9   GILBERT       AZ 116663        1       0       U      25       1
## 10   GILBERT       AZ 116663        2       1       W      32       1
## # ... with 1,845 more rows, and 1 more variables: LOCCOD1 <int>

Doing the same filter that i did above for 20013 data but switched the variables so i can see which incidents have more victims than offenders

data_subset13 %>% filter(TNUMOFF < TNUMVTMS)

## # A tibble: 1,536 x 9
##         CITY STATECOD   POP1 TNUMVTMS TNUMOFF GOFFRAC BIASMO1 VTYP_I1
##        <chr>    <chr>  <int>    <int>   <int>   <chr>   <int>   <int>
##  1 ANCHORAGE       AK 299455        2       1       W      13       1
##  2 ANCHORAGE       AK 299455        1       0       U      12       1
##  3 VAN BUREN       AR  30898        1       0       U      42       1
##  4    CONWAY       AR  43865        4       1       W      32       1
##  5    CONWAY       AR  43865        3       1       W      12       1
##  6 PARAGOULD       AR  15065        2       1       W      12       1
##  7   ENGLAND       AR   2806        1       0       U      12       1
##  8     CABOT       AR  24695        2       1       U      12       1
##  9    BISBEE       AZ  51413        1       0       U      25       1
## 10   PHOENIX       AZ 387794        2       0       U      12       1
## # ... with 1,526 more rows, and 1 more variables: LOCCOD1 <int>
…
na.omit(data_subset2)

## # A tibble: 7,462 x 9
##          CITY STATECOD   POP1 TNUMVTMS TNUMOFF GOFFRAC BIASMO1 VTYP_I1
##         <chr>    <chr>  <int>    <int>   <int>   <chr>   <int>   <int>
##  1  ANCHORAGE       AK 267280        1       2       U      41       1
##  2  ANCHORAGE       AK 267280        1       1       W      41       1
##  3  ANCHORAGE       AK 267280        1       2       W      12       1
##  4  ANCHORAGE       AK 267280        1       0       U      13       1
##  5  ANCHORAGE       AK 267280        1       4       W      41       1
##  6  ANCHORAGE       AK 267280        1       2       W      13       1
##  7  ANCHORAGE       AK 267280        1       1       W      12       1
##  8   PRICHARD       AL  28886        1       1       B      11       1
##  9 MONTGOMERY       AL  22135        1       5       W      12       1
## 10      EAGAR       AZ   4290        1       0       U      51       1
## # ... with 7,452 more rows, and 1 more variables: LOCCOD1 <int>
…
Arrange your data by this/these variables and print the results.

arrange(data_subset2, STATECOD, CITY, POP1, TNUMVTMS, TNUMOFF, GOFFRAC, VTYP_I1, BIASMO1, LOCCOD1)

## # A tibble: 7,462 x 9
##          CITY STATECOD   POP1 TNUMVTMS TNUMOFF GOFFRAC BIASMO1 VTYP_I1
##         <chr>    <chr>  <int>    <int>   <int>   <chr>   <int>   <int>
##  1  ANCHORAGE       AK 267280        1       0       U      13       1
##  2  ANCHORAGE       AK 267280        1       1       W      12       1
##  3  ANCHORAGE       AK 267280        1       1       W      41       1
##  4  ANCHORAGE       AK 267280        1       2       U      41       1
##  5  ANCHORAGE       AK 267280        1       2       W      12       1
##  6  ANCHORAGE       AK 267280        1       2       W      13       1
##  7  ANCHORAGE       AK 267280        1       4       W      41       1
##  8 MONTGOMERY       AL  22135        1       5       W      12       1
##  9   PRICHARD       AL  28886        1       1       B      11       1
## 10     BISBEE       AZ   6476        1       2       W      41       1
## # ... with 7,452 more rows, and 1 more variables: LOCCOD1 <int>

arrange(data_subset13, STATECOD, CITY, POP1, TNUMVTMS, TNUMOFF, GOFFRAC, VTYP_I1, BIASMO1, LOCCOD1)

## # A tibble: 5,914 x 9
##         CITY STATECOD   POP1 TNUMVTMS TNUMOFF GOFFRAC BIASMO1 VTYP_I1
##        <chr>    <chr>  <int>    <int>   <int>   <chr>   <int>   <int>
##  1 ANCHORAGE       AK 299455        1       0       U      12       1
##  2 ANCHORAGE       AK 299455        1       1       U      12       1
##  3 ANCHORAGE       AK 299455        1       1       W      12       1
##  4 ANCHORAGE       AK 299455        1       1       W      12       1
##  5 ANCHORAGE       AK 299455        1       1       W      13       1
##  6 ANCHORAGE       AK 299455        1       1       W      13       1
##  7 ANCHORAGE       AK 299455        1       4       W      12       1
##  8 ANCHORAGE       AK 299455        2       1       W      13       1
##  9  FLORENCE       AL  39481        1       1       U      12       1
## 10  FLORENCE       AL  39481        1       1       U      15       1
## # ... with 5,904 more rows, and 1 more variables: LOCCOD1 <int>
…
The exercises so far have tried to get you to think about how to apply the five verbs of dplyr to your data.

Are there any specific transformations you want to make to your data? What are they and what aspect of your research question will they help you to answer?

The biggest transformation that helped me uderstand my data in the way i want were the functions in 7a because i was able to filter out certain hate crime reports that i wanted to specifically examine for both years and compare those crimes. For example, this boolean function will allow me to see only crimes that have offenders race as white and the bias motive was anti-black. So i am able to see how many of these incidents occured in the US for both 2002 and 2013 because of these filters put in place. I want to do more these filters that pertain to specific bias motivations, offenders race, type of offense code, and victim type as well as how many vicitims/offenders there are per incident.

In a code chunk below, carry out all the data transformations you wish to perform on your data. Utilize the %>% operator to tie multiple commands together and make your code more readable and efficient. Remember to comment your code so it is clear why you doing things a certain way.

I am using the boolean filter functions to find certain variables that i want to analyze and compare them between the two years. I want to use the new column generator function so i can find the total number of people involved in an incident which has the victims and offenders. Want to rearrange my variables in a more readable way. Using distinct function to filter specific outcomes of variables that I want.

data_subset2 %>% 
  mutate(new_column = TNUMVTMS + TNUMOFF) %>%
  filter(BIASMO1 == 24 & LOCCOD1 == 20)

## # A tibble: 39 x 10
##             CITY STATECOD   POP1 TNUMVTMS TNUMOFF GOFFRAC BIASMO1 VTYP_I1
##            <chr>    <chr>  <int>    <int>   <int>   <chr>   <int>   <int>
##  1      GLENDALE       AZ 232707        1       1       W      24       1
##  2      PASADENA       CA 138857        1       0       U      24       1
##  3 SAN FRANCISCO       CA 805269        2       0       U      24       1
##  4          LODI       CA  59093        2       0       U      24       1
##  5    CENTENNIAL       CO  55798        0       1       U      24       1
##  6       ORLANDO       FL 629247        1       1       W      24       1
##  7    BOCA RATON       FL  78183        1       1       W      24       1
##  8        MURRAY       KY  15139        0       1       U      24       1
##  9   SPRINGFIELD       MA 153967        0       0       U      24       1
## 10        REVERE       MA  47869        0       0       U      24       1
## # ... with 29 more rows, and 2 more variables: LOCCOD1 <int>,
## #   new_column <int>
